
******************************************************************************************************************************
Start the application, from terminal:

	CD into desired folder
	npm install
	CD into public folder
	npm ng build

******************************************************************************************************************************
	