
******************************************************************************************************************************
Start the application, from terminal:

	CD into desired folder
	npm install


******************************************************************************************************************************
	